#-----------------------------------------------------------
# Vivado v2018.2 (64-bit)
# SW Build 2258646 on Thu Jun 14 20:02:38 MDT 2018
# IP Build 2256618 on Thu Jun 14 22:10:49 MDT 2018
# Start of session at: Sun Jan 13 14:53:21 2019
# Process ID: 29698
# Current directory: /home/t3garg/Work/systolic-array-vu9p_local/synth/dsp_conv_block
# Command line: vivado dsp_conv_chip_place-and-route.dcp
# Log file: /home/t3garg/Work/systolic-array-vu9p_local/synth/dsp_conv_block/vivado.log
# Journal file: /home/t3garg/Work/systolic-array-vu9p_local/synth/dsp_conv_block/vivado.jou
#-----------------------------------------------------------
start_gui
open_checkpoint /home/t3garg/Work/systolic-array-vu9p_local/synth/dsp_conv_block/dsp_conv_chip_place-and-route.dcp
Command: open_checkpoint /home/t3garg/Work/systolic-array-vu9p_local/synth/dsp_conv_block/dsp_conv_chip_place-and-route.dcp

Starting open_checkpoint Task

Time (s): cpu = 00:00:00.16 ; elapsed = 00:00:00.08 . Memory (MB): peak = 6062.191 ; gain = 0.000 ; free physical = 15754 ; free virtual = 101413
INFO: [IP_Flow 19-234] Refreshing IP repositories
INFO: [IP_Flow 19-1704] No user IP repositories specified
INFO: [IP_Flow 19-2313] Loaded Vivado IP repository '/opt/Xilinx/Vivado/2018.2/data/ip'.
INFO: [Netlist 29-17] Analyzing 36 Unisim elements for replacement
INFO: [Netlist 29-28] Unisim Transformation completed in 0 CPU seconds
INFO: [Project 1-479] Netlist was created with Vivado 2018.2
INFO: [Device 21-403] Loading part xcvu37p-fsvh2892-3-e-es1
INFO: [Project 1-570] Preparing netlist for logic optimization
INFO: [Timing 38-478] Restoring timing data from binary archive.
INFO: [Timing 38-479] Binary timing data restore complete.
INFO: [Project 1-856] Restoring constraints from binary archive.
INFO: [Project 1-853] Binary constraint restore complete.
Reading XDEF placement.
Reading placer database...
Reading XDEF routing.
Read XDEF File: Time (s): cpu = 00:00:00.20 ; elapsed = 00:00:00.25 . Memory (MB): peak = 7647.098 ; gain = 0.000 ; free physical = 14785 ; free virtual = 100444
Restored from archive | CPU: 0.250000 secs | Memory: 3.188004 MB |
Finished XDEF File Restore: Time (s): cpu = 00:00:00.20 ; elapsed = 00:00:00.25 . Memory (MB): peak = 7647.098 ; gain = 0.000 ; free physical = 14785 ; free virtual = 100444
INFO: [Project 1-111] Unisim Transformation Summary:
  A total of 9 instances were transformed.
  DSP48E2 => DSP48E2 (DSP_ALU, DSP_A_B_DATA, DSP_C_DATA, DSP_MULTIPLIER, DSP_M_DATA, DSP_OUTPUT, DSP_PREADD_DATA, DSP_PREADD): 9 instances

INFO: [Project 1-604] Checkpoint was created with Vivado v2018.2 (64-bit) build 2258646
open_checkpoint: Time (s): cpu = 00:00:59 ; elapsed = 00:00:52 . Memory (MB): peak = 8112.273 ; gain = 2050.082 ; free physical = 14189 ; free virtual = 99848
report_utilization -name utilization_1
report_utilization: Time (s): cpu = 00:00:25 ; elapsed = 00:00:11 . Memory (MB): peak = 8185.434 ; gain = 40.789 ; free physical = 11933 ; free virtual = 97592
report_utilization: Time (s): cpu = 00:00:25 ; elapsed = 00:00:11 . Memory (MB): peak = 8185.434 ; gain = 40.789 ; free physical = 11933 ; free virtual = 97592
report_power -name {power_1}
Command: report_power -name power_1
Running Vector-less Activity Propagation...
WARNING: [Timing 38-242] The property HD.CLK_SRC of clock port "clk" is not set. In out-of-context mode, this prevents timing estimation for clock delay/skew
Resolution: Set the HD.CLK_SRC property of the out-of-context port to the location of the clock buffer instance in the top-level design

Finished Running Vector-less Activity Propagation
0 Infos, 1 Warnings, 0 Critical Warnings and 0 Errors encountered.
report_power completed successfully
report_power: Time (s): cpu = 00:01:52 ; elapsed = 00:01:08 . Memory (MB): peak = 9363.934 ; gain = 451.375 ; free physical = 12759 ; free virtual = 98419
exit
INFO: [Common 17-206] Exiting Vivado at Sun Jan 13 14:57:33 2019...
